{
	"name": "PuzzleBackground",
	"plugin-id": "TiledBg",
	"sid": 369800588188028,
	"isGlobal": false,
	"instanceVariables": [],
	"behaviorTypes": [],
	"effectTypes": [],
	"image": {
		"width": 2304,
		"height": 1536,
		"originX": 0.5,
		"originY": 0.5,
		"originalSource": "",
		"exportFormat": "png",
		"exportQuality": 0.8,
		"imageSpriteId": 5430675,
		"useCollisionPoly": true
	}
}