{
	"name": "TitleCredits",
	"plugin-id": "Sprite",
	"sid": 758163626700875,
	"isGlobal": false,
	"instanceVariables": [],
	"behaviorTypes": [
		{
			"behaviorId": "Tween",
			"name": "Tween",
			"sid": 496127248389941
		}
	],
	"effectTypes": [],
	"animations": {
		"items": [
			{
				"frames": [
					{
						"width": 1958,
						"height": 128,
						"originX": 0.5,
						"originY": 0.5,
						"originalSource": "",
						"exportFormat": "png",
						"exportQuality": 0.8,
						"imageSpriteId": 2277331,
						"collisionPoly": {
							"points": [
								0.018367346938775512,
								0.28125,
								0.5,
								0.28125,
								0.9795918367346939,
								0.28125,
								0.9938775510204082,
								0.5,
								0.9775510204081632,
								0.65625,
								0.5,
								0.3125,
								0.02040816326530612,
								0.65625,
								0.004081632653061225,
								0.5
							]
						},
						"useCollisionPoly": true,
						"duration": 1
					}
				],
				"sid": 667872456330168,
				"name": "Animation 1",
				"isLooping": false,
				"isPingPong": false,
				"repeatCount": 1,
				"repeatTo": 0,
				"speed": 5
			}
		],
		"subfolders": []
	}
}