{
	"name": "WallButton",
	"plugin-id": "Sprite",
	"sid": 659478588827737,
	"isGlobal": false,
	"instanceVariables": [],
	"behaviorTypes": [
		{
			"behaviorId": "Tween",
			"name": "Tween",
			"sid": 859964232156340
		}
	],
	"effectTypes": [],
	"animations": {
		"items": [
			{
				"frames": [
					{
						"width": 92,
						"height": 92,
						"originX": 0.5,
						"originY": 0.5,
						"originalSource": "",
						"exportFormat": "png",
						"exportQuality": 0.8,
						"imageSpriteId": 9796936,
						"useCollisionPoly": true,
						"duration": 1
					}
				],
				"sid": 655661132989665,
				"name": "idle",
				"isLooping": false,
				"isPingPong": false,
				"repeatCount": 1,
				"repeatTo": 0,
				"speed": 5
			},
			{
				"frames": [
					{
						"width": 92,
						"height": 92,
						"originX": 0.5,
						"originY": 0.5,
						"originalSource": "",
						"exportFormat": "png",
						"exportQuality": 0.8,
						"imageSpriteId": 4567346,
						"useCollisionPoly": true,
						"duration": 1
					},
					{
						"width": 92,
						"height": 92,
						"originX": 0.5,
						"originY": 0.5,
						"originalSource": "",
						"exportFormat": "png",
						"exportQuality": 0.8,
						"imageSpriteId": 3899592,
						"useCollisionPoly": true,
						"duration": 1
					},
					{
						"width": 92,
						"height": 92,
						"originX": 0.5,
						"originY": 0.5,
						"originalSource": "",
						"exportFormat": "png",
						"exportQuality": 0.8,
						"imageSpriteId": 528975,
						"useCollisionPoly": true,
						"duration": 1
					},
					{
						"width": 92,
						"height": 92,
						"originX": 0.5,
						"originY": 0.5,
						"originalSource": "",
						"exportFormat": "png",
						"exportQuality": 0.8,
						"imageSpriteId": 9743713,
						"useCollisionPoly": true,
						"duration": 1
					},
					{
						"width": 92,
						"height": 92,
						"originX": 0.5,
						"originY": 0.5,
						"originalSource": "",
						"exportFormat": "png",
						"exportQuality": 0.8,
						"imageSpriteId": 9763376,
						"useCollisionPoly": true,
						"duration": 1
					},
					{
						"width": 92,
						"height": 92,
						"originX": 0.5,
						"originY": 0.5,
						"originalSource": "",
						"exportFormat": "png",
						"exportQuality": 0.8,
						"imageSpriteId": 1845765,
						"useCollisionPoly": true,
						"duration": 1
					}
				],
				"sid": 709672977452391,
				"name": "clicked",
				"isLooping": false,
				"isPingPong": true,
				"repeatCount": 1,
				"repeatTo": 0,
				"speed": 35
			}
		],
		"subfolders": []
	}
}