{
	"name": "Title",
	"events": [
		{
			"eventType": "variable",
			"name": "titleTransitionDuration",
			"type": "number",
			"initialValue": "1",
			"comment": "The duration, in seconds, of the title transition animation",
			"isStatic": false,
			"isConstant": true,
			"sid": 863859948117438
		},
		{
			"eventType": "block",
			"conditions": [
				{
					"id": "on-start-of-layout",
					"objectClass": "System",
					"sid": 811852434049739
				}
			],
			"actions": [
				{
					"id": "play",
					"objectClass": "Audio",
					"sid": 170544403646104,
					"parameters": {
						"audio-file": "bgm",
						"loop": "looping",
						"volume": "-75",
						"tag-optional": "\"bgm\""
					}
				},
				{
					"id": "fade-volume",
					"objectClass": "Audio",
					"sid": 233331446476237,
					"parameters": {
						"tag": "\"bgm\"",
						"db": "0",
						"duration": "3",
						"ending": "keep-playing"
					}
				},
				{
					"id": "set-opacity",
					"objectClass": "Logo",
					"sid": 237044880903335,
					"parameters": {
						"opacity": "0"
					}
				},
				{
					"id": "set-opacity",
					"objectClass": "Circle",
					"sid": 508660864581052,
					"parameters": {
						"opacity": "0"
					}
				},
				{
					"id": "set-opacity",
					"objectClass": "Begin",
					"sid": 444558384970702,
					"parameters": {
						"opacity": "0"
					}
				},
				{
					"id": "set-opacity",
					"objectClass": "TitleCredits",
					"sid": 925329361213520,
					"parameters": {
						"opacity": "0"
					}
				},
				{
					"id": "tween-one-property",
					"objectClass": "Logo",
					"sid": 368214120135149,
					"behaviorType": "Tween",
					"parameters": {
						"tags": "\"logo transition\"",
						"property": "offsetOpacity",
						"end-value": "100",
						"time": "titleTransitionDuration",
						"ease": "default",
						"destroy-on-complete": "no",
						"loop": "no",
						"ping-pong": "no"
					}
				},
				{
					"id": "tween-one-property",
					"objectClass": "Circle",
					"sid": 208189962677956,
					"behaviorType": "Tween",
					"parameters": {
						"tags": "\"circle transition\"",
						"property": "offsetOpacity",
						"end-value": "100",
						"time": "titleTransitionDuration",
						"ease": "default",
						"destroy-on-complete": "no",
						"loop": "no",
						"ping-pong": "no"
					}
				},
				{
					"id": "wait",
					"objectClass": "System",
					"sid": 786317943659425,
					"parameters": {
						"seconds": "titleTransitionDuration"
					}
				},
				{
					"id": "tween-one-property",
					"objectClass": "Begin",
					"sid": 513833097027453,
					"behaviorType": "Tween",
					"parameters": {
						"tags": "\"begin transition\"",
						"property": "offsetOpacity",
						"end-value": "100",
						"time": "1.5*titleTransitionDuration",
						"ease": "default",
						"destroy-on-complete": "no",
						"loop": "no",
						"ping-pong": "no"
					}
				},
				{
					"id": "tween-one-property",
					"objectClass": "TitleCredits",
					"sid": 185077573403886,
					"behaviorType": "Tween",
					"parameters": {
						"tags": "\"title credits transition\"",
						"property": "offsetOpacity",
						"end-value": "100",
						"time": "titleTransitionDuration",
						"ease": "default",
						"destroy-on-complete": "no",
						"loop": "no",
						"ping-pong": "no"
					}
				}
			],
			"sid": 639575747764293
		},
		{
			"eventType": "block",
			"conditions": [
				{
					"id": "on-object-clicked",
					"objectClass": "Mouse",
					"sid": 942869107094935,
					"parameters": {
						"mouse-button": "left",
						"click-type": "clicked",
						"object-clicked": "Begin"
					}
				},
				{
					"id": "compare-opacity",
					"objectClass": "Begin",
					"sid": 759326923339327,
					"parameters": {
						"comparison": 4,
						"opacity": "25"
					}
				}
			],
			"actions": [
				{
					"id": "tween-one-property",
					"objectClass": "Logo",
					"sid": 177550885086410,
					"behaviorType": "Tween",
					"parameters": {
						"tags": "\"logo transition\"",
						"property": "offsetOpacity",
						"end-value": "0",
						"time": "titleTransitionDuration",
						"ease": "default",
						"destroy-on-complete": "yes",
						"loop": "no",
						"ping-pong": "no"
					}
				},
				{
					"id": "tween-one-property",
					"objectClass": "Circle",
					"sid": 942486803359562,
					"behaviorType": "Tween",
					"parameters": {
						"tags": "\"circle transition\"",
						"property": "offsetOpacity",
						"end-value": "0",
						"time": "titleTransitionDuration",
						"ease": "default",
						"destroy-on-complete": "yes",
						"loop": "no",
						"ping-pong": "no"
					}
				},
				{
					"id": "tween-one-property",
					"objectClass": "Begin",
					"sid": 589184483770890,
					"behaviorType": "Tween",
					"parameters": {
						"tags": "\"begin transition\"",
						"property": "offsetOpacity",
						"end-value": "0",
						"time": "titleTransitionDuration",
						"ease": "default",
						"destroy-on-complete": "yes",
						"loop": "no",
						"ping-pong": "no"
					}
				},
				{
					"id": "tween-one-property",
					"objectClass": "TitleCredits",
					"sid": 246634219767023,
					"behaviorType": "Tween",
					"parameters": {
						"tags": "\"title credits transition\"",
						"property": "offsetOpacity",
						"end-value": "0",
						"time": "titleTransitionDuration",
						"ease": "default",
						"destroy-on-complete": "no",
						"loop": "no",
						"ping-pong": "no"
					}
				},
				{
					"id": "wait",
					"objectClass": "System",
					"sid": 792060359183523,
					"parameters": {
						"seconds": "titleTransitionDuration"
					}
				},
				{
					"id": "go-to-layout",
					"objectClass": "System",
					"sid": 548855696262924,
					"parameters": {
						"layout": "Puzzle1-1"
					}
				}
			],
			"sid": 986533674597365
		}
	],
	"sid": 776229357844634
}